<svg width="20" height="20" viewBox="0 0 20 20" fill="none" xmlns="http://www.w3.org/2000/svg">
<path d="M18.4219 10.4214L13.3556 15.4877M18.4219 10.4214L13.3556 5.35512M18.4219 10.4214H1.26514" stroke="#848484" stroke-width="1.5"/>
</svg>
